{
  "restaurant": {
    "name": "Soylent Green",
    "slogan": "Food for people, by people, and from people.",
    "quote": "Son of a bitch. I haven't eaten like this in years.",
    "quoteCitation": "Sol",
    "address": {
      "streetAddress": "2022 East Green Boulevard #501",
      "city": "New York",
      "state": "NY",
      "postalCode": "10001"
    },
    "phoneNumber": "222-059-1973",
    "emailAddress": "info@soylentgreen.com",
    "hours": {
      "MONTHUR": "9:00AM - 8:00PM",
      "FRISAT": "9:00AM - 10:00PM",
      "SUN": "11:00AM - 7:00PM"
    },
    "aboutBio": "In a densely overpopulated, starving New York City of the future, NYPD detective Robert Thorn (Charlton Heston) investigates the murder of an executive at rations manufacturer Soylent Corporation. With the help of elderly academic Solomon Sol Roth (Edward G. Robinson), Thorn begins to make real progress -- until the governor mysteriously pulls the plug. Obsessed with the mystery, Thorn steps out from behind the badge and launches his own investigation into the murder.",
    "social": [
      {
        "icon": "circlefacebook",
        "link": "http://www.facebook.com/soylentgreen"
      },
      {
        "icon": "circletwitterbird",
        "link": "http://www.twitter.com/soylentgreen"
      },
      {
        "icon": "circleinstagram",
        "link": "http://www.instagram.com/soylentgreen"
      },
      {
        "icon": "circleyelp",
        "link": "http://www.yelp.com/soylentgreen"
      }
    ],
    "contactEmail": "support@soylentgreen.com",
    "footer": {
      "message": "Hello There",
      "copyright": "©2015"
    }
  },
  "menuUserInput": {
    "brief": "Soylent Green is crafted from people of the upmost quality. Our meat puppets, I mean ingredients, are always aged and tender. Technically speaking solent green is even organic too so like hey there's that.",
    "legend": [
      {
        "symbol": "GF",
        "description": "Gluten Free"
      },
      {
        "symbol": "GFO",
        "description": "GlutenFree option"
      },
      {
        "symbol": "Veg",
        "description": "Vegitarian"
      },
      {
        "symbol": "V",
        "description": "Vegan"
      }
    ],
    "entries": [
      {
        "category": "Breakfast",
        "title": "Classical Soylent Green",
        "indicators": "(GF)(V)",
        "description": "A traditional plate of Soylent Green, made from our top chef Dr. P Eople."
      },
      {
        "category": "",
        "title": "Green Machine",
        "indicators": "(GF)(V)",
        "description": "Everyone's favorite Soylent Green in smoothie form."
      },
      {
        "category": "",
        "title": "Manca... I mean pancakes",
        "indicators": "(GF)",
        "description": "Ground up and baked into three delicious pancakes with a slight green hue."
      },
      {
        "category": "",
        "title": "Green Waffles",
        "indicators": "(GF)",
        "description": "A safe to google soylent based stack of waffles topped in a rich syrup."
      },
      {
        "category": "",
        "title": "Soylent Scramble & Hash Greens",
        "indicators": "(GFO)",
        "description": "Everyone's favorite Soylent Green in smoothie form."
      },
      {
        "category": "Lunch",
        "title": "Classical Soylent Green",
        "indicators": "(GF)(V)",
        "description": "A traditional plate of Soylent Green, made from our top chef Dr. P Eople."
      },
      {
        "category": "",
        "title": "Soylent Salad",
        "indicators": "(GF)(V)",
        "description": "Chef Dr. P Eople's signature recipe ground up into a bowl that resembles what the old world once called a 'salad.'"
      },
      {
        "category": "",
        "title": "Tacos Verdes",
        "indicators": "(GF)",
        "description": "Quality Soylent Green ground up into a taco meat served on baked Soylent shells."
      },
      {
        "category": "",
        "title": "G.G.G Sandwich",
        "indicators": "(GFO)",
        "description": "In the future there is no bacon, lettuce, or tomatos but there is Soylent Green, and lots of it."
      },
      {
        "category": "",
        "title": "Pink Floyd burger",
        "indicators": "(GFO)(Veg)",
        "description": "One soylent green brick patty on a delicious green bun."
      },
      {
        "category": "Dinner",
        "title": "Classical Soylent Green",
        "indicators": "(GF)(V)",
        "description": "A traditional plate of Soylent Green, made from our top chef Dr. P Eople."
      },
      {
        "category": "",
        "title": "Green-ish Spegetti",
        "indicators": "(GFO)(V)",
        "description": "Your choice of noodles topped in pattened Soylent Green-sause."
      },
      {
        "category": "",
        "title": "Seasonal Soylent bowl",
        "indicators": "(V)",
        "description": "Every season is Soylent season, so really there's nothing special to this dish."
      },
      {
        "category": "",
        "title": "Split Pea..ple Soup",
        "indicators": "(GF)(V)",
        "description": "Signature green split pea soup, served with a side of either a retirement house salad or a G.G.G Sandwich."
      }
    ]
  }
}
